Human Genome Analysis Lab 5 : Linking DTC SNPs to the NHGRI-EBI Catalog of published genome-wide association studies
…
To get studies associated with a term

R code

gwascat |> 
  filter(str_detect(tolower(DISEASE.TRAIT), "diabetes")) |> 
  distinct(DISEASE.TRAIT)

# A tibble: 1,150 × 1
   DISEASE.TRAIT                                            
   <chr>                                                    
 1 Type 2 diabetes                                          
 2 Adult onset asthma or type 2 diabetes                    
 3 Nonatopic asthma or type 2 diabetes                      
 4 Diabetic neuropathy in type 2 diabetes                   
 5 Macrovascular complications in type 2 diabetes           
 6 Ophthalmic complications in type 2 diabetes              
 7 Chronic kidney disease x type 2 diabetes interaction     
 8 Peripheral arterial disease x type 2 diabetes interaction
 9 Coronary heart disease x type 2 diabetes interaction     
10 Acute ischemic stroke x type 2 diabetes interaction      
# ℹ 1,140 more rows

That is a lot of different DISEASE.TRAIT categories associated with diabetes. Now let’s look at Studies with diabetes in the title.

R code

gwascat |> 
  filter(str_detect(tolower(STUDY), "diabetes")) |> 
  distinct(STUDY)

# A tibble: 219 × 1
   STUDY                                                                        
   <chr>                                                                        
 1 Associations of Observational and Genetically Determined Caffeine Intake Wit…
 2 Identification of type 2 diabetes loci in 433,540 East Asian individuals.    
 3 Novel susceptibility loci identified in a genome-wide association study of t…
 4 Discovery of 318 new risk loci for type 2 diabetes and related vascular outc…
 5 Phenotypic and Genetic Characterization of Lower LDL-C and Increased Type-2 …
 6 Interactions of Habitual Coffee Consumption by Genetic Polymorphisms with th…
 7 Genetic Predisposition to Coronary Artery Disease in Type 2 Diabetes Mellitu…
 8 A variant within the FTO confers susceptibility to diabetic nephropathy in J…
 9 Identification of 28 new susceptibility loci for type 2 diabetes in the Japa…
10 A Genome-Wide Association Study of Diabetic Kidney Disease in Subjects With …
# ℹ 209 more rows
…
Note that we get different results depending on whether we search the DISEASE.TRAIT or STUDY.

Let’s look at how many alleles (SNPS) that are associated with diabetes

R code

gwascat |> 
  filter(str_detect(tolower(DISEASE.TRAIT), "diabetes")) |> 
  distinct(SNPS)

# A tibble: 5,325 × 1
   SNPS       
   <chr>      
 1 rs10852123 
 2 rs8026714  
 3 rs61021634 
 4 rs79826452 
 5 rs2240885  
 6 rs117267808
 7 rs1421085  
 8 rs12600132 
 9 rs6416749  
10 rs2925979  
# ℹ 5,315 more rows
…
The GWAS data lists each SNP (e.g. “rs9302874”) in a field called SNPS. Our imported 23andme data has the same info in the rsid field. Hence we can do a simple join, here using the dplyr library.

R code

mySNPs_gwas_table <- inner_join(mySNPs, gwascat, by = c("rsid" = "SNPS"))

Now that we have joined the genetic test with the gwas cat let’s visit how many SNPS/rsids we have associated with our genetic data

R code

mySNPs_gwas_table |> 
  filter(str_detect(tolower(DISEASE.TRAIT), "diabetes")) |> 
  distinct(rsid)

# A tibble: 1,745 × 1
   rsid      
   <chr>     
 1 rs11583755
 2 rs10399665
 3 rs880315  
 4 rs4845987 
 5 rs4661310 
 6 rs4920461 
 7 rs2236835 
 8 rs3738126 
 9 rs10916780
10 rs6672420 
# ℹ 1,735 more rows
…
mySNPs_gwas_table_risk$have_risk_allele_count <- if_else(mySNPs_gwas_table_risk$my_allele_1 == mySNPs_gwas_table_risk$risk_allele_clean, 1, 0) + if_else(mySNPs_gwas_table_risk$my_allele_2 == mySNPs_gwas_table_risk$risk_allele_clean, 1, 0)

Now you have your two individual alleles stored in my_allele_1 and my_allele_2, and the allele for the “highest risk” stored in risk_allele_clean. Risk_allele_clean is the letter part of the GWAS STRONGEST.SNP.RISK.ALLELE field. And finally, the have_risk_allele_count is either 0, 1 or 2 depending on whether your 23andme genotype result at that SNP contains 0, 1 or 2 of the risk alleles.

The previously mentioned DISEASE.TRAIT field contains a summary of the trait involved. So by filtering your dataset to only look for studies about a trait you care about, you can see a summary of the risk allele and whether or not you have it, and the relevant studies that elicited that connection.

R code

mySNPs_gwas_table_risk |> 
  filter(have_risk_allele_count >= 1) |>
  filter(str_detect(tolower(DISEASE.TRAIT), "diabetes")) |> 
  distinct(rsid)

# A tibble: 754 × 1
   rsid      
   <chr>     
 1 rs11583755
 2 rs10399665
 3 rs6672420 
 4 rs11249215
 5 rs3753693 
 6 rs12116935
 7 rs12742756
 8 rs17106184
 9 rs12140153
10 rs2269247 
# ℹ 744 more rows

R code

mySNPs_gwas_table_risk |> 
  filter(have_risk_allele_count >= 1) |>
  filter(str_detect(tolower(DISEASE.TRAIT), "diabetes")) |> 
  select(c(RISK.ALLELE.FREQUENCY, P.VALUE)) |> 
  arrange(P.VALUE)

# A tibble: 1,720 × 2
   RISK.ALLELE.FREQUENCY  P.VALUE
                   <dbl>    <dbl>
 1                 0.292 1  e-307
 2                 0.780 2  e-307
 3                 0.708 3  e-307
 4                 0.295 6  e-307
 5                NA     9  e-307
 6                 0.56  2  e-296
 7                 0.56  2  e-287
 8                 0.56  1  e-271
 9                 0.56  2  e-265
10                 0.632 2  e-245
# ℹ 1,710 more rows

That is a lot of risk alleles (rsids) that have a which have an association with diabetes

For example, let’s assume that by now we also inevitably developed a strong interest in omegas and fatty acids. Which SNPs may relate to that topic, and do we personally have the risk allele for any of them?

We can use the str_detect function of the stringr library in order to search for any entries that contain the substring “omega” or “fatty acid”. Then get the associated Studies.

R code

mySNPs_gwas_table_risk |> 
  select(rsid, DISEASE.TRAIT, STUDY, risk_allele = risk_allele_clean, your_geneotype = genotype) |> 
  filter(str_detect(tolower(DISEASE.TRAIT), "omega") | str_detect(tolower(DISEASE.TRAIT), "fatty acid")) |>
  distinct(STUDY)

# A tibble: 36 × 1
   STUDY                                                                        
   <chr>                                                                        
 1 Characterising metabolomic signatures of lipid-modifying therapies through d…
 2 Role of circulating polyunsaturated fatty acids on cardiovascular diseases r…
 3 Genome-wide association study of plasma N6 polyunsaturated fatty acids withi…
 4 Genome-Wide Association Study for Serum Omega-3 and Omega-6 Polyunsaturated …
 5 Genome-wide characterization of circulating metabolic biomarkers.            
 6 Association between Human Genetic Variants and the Vaginal Bacteriome of Pre…
 7 A genome-wide association study of n-3 and n-6 plasma fatty acids in a Singa…
 8 Genetic loci associated with plasma phospholipid n-3 fatty acids: a meta-ana…
 9 Genetic Studies of Metabolomics Change After a Liquid Meal Illuminate Novel …
10 Metabolomic Investigation of Major Depressive Disorder Identifies a Potentia…
# ℹ 26 more rows

To find out if a particular allele (rsid) is associated with other traits

R code

mySNPs_gwas_table_risk |> 
  select(rsid, DISEASE.TRAIT, STUDY) |> 
  filter(rsid == "rs174537") |> 
  distinct(DISEASE.TRAIT)

# A tibble: 132 × 1
   DISEASE.TRAIT                                                                
   <chr>                                                                        
 1 Electrocardiographic traits (multivariate)                                   
 2 Sex hormone-binding globulin levels adjusted for BMI                         
 3 Sex hormone-binding globulin levels                                          
 4 Triglycerides                                                                
 5 HDL cholesterol                                                              
 6 Colorectal cancer                                                            
 7 Serum metabolite ratios in chronic kidney disease                            
 8 Serum metabolite concentrations in chronic kidney disease                    
 9 Phosphatidate(43:4)_[M-H]1- levels                                           
10 Phosphatidylinositol-O(36:0)_[M-H]1-/Phosphatidylglycerol(37:0)_[M+OAc]1- le…
# ℹ 122 more rows

Now onto the second approach – this time, you don’t have a specific trait in mind. You’re more interested in discovering which traits have risk alleles that match the respective part of your genome.

We already have our have_risk_allele_count field. If it’s 1 or 2 then you have some sort of match. So, the full list of your matches and the associated studies could be retrieved in a manner like this.

R code

mySNPs_gwas_table_risk |> 
  filter(have_risk_allele_count >= 1) |>
  select(rsid, your_genotype = genotype, strongest_risk_allele = risk_allele_clean, DISEASE.TRAIT, STUDY )

# A tibble: 83,679 × 5
   rsid       your_genotype strongest_risk_allele DISEASE.TRAIT            STUDY
   <chr>      <fct>         <chr>                 <chr>                    <chr>
 1 rs2272756  AG            A                     Skin reflectance (Melan… A ge…
 2 rs1891910  GG            G                     Parental longevity (mot… A Pr…
 3 rs4072537  CT            C                     Serum phosphate levels   Gene…
 4 rs9442380  CC            C                     Urate levels             Gene…
 5 rs9442385  GG            G                     Clear cell renal cell c… Mult…
 6 rs1891905  TT            T                     Serum urate levels       Larg…
 7 rs3766186  CC            C                     Blood protein levels     Co-r…
 8 rs78446752 CC            C                     Schizophrenia            Mapp…
 9 rs4648727  AC            A                     Serum levels of protein… A ge…
10 rs4648727  AC            A                     Hemoglobin               A cr…
# ℹ 83,669 more rows
…
Similar to the caveats on searching the trait fields, one does need to be careful here if you’re looking for a comprehensive set of results. Some entries in the database have blanks in one of these fields, and others don’t specify ethnicities, having entries like “Up to 984 individuals”.

For the proportion of the studied population who had the risk allele, it’s the RISK.ALLELE.FREQUENCY field. Again, this can sometimes be blank or zero. But in theory, where it has a valid value, then, depending on the study design, you might find that lower frequencies are rarer traits.

We can use dplyr‘s arrange and filter functions to sort do the above sort of narrowing-down. For example: what are the top 10 trait / study / SNP combinations you have the risk allele for that were explicitly studied within European folk, ordered by virtue of them having the lowest population frequencies reported in the study?

R code

mySNPs_gwas_table_risk |> 
  filter(have_risk_allele_count > 0 & (str_detect(tolower(INITIAL.SAMPLE.SIZE), "european") |   str_detect(tolower(REPLICATION.SAMPLE.SIZE), "european")) & (RISK.ALLELE.FREQUENCY > 0 & !is.na(RISK.ALLELE.FREQUENCY))) |>
  arrange(RISK.ALLELE.FREQUENCY) |>
  select(rsid, your_genotype = genotype, DISEASE.TRAIT, INITIAL.SAMPLE.SIZE, RISK.ALLELE.FREQUENCY)

# A tibble: 50,791 × 5
   rsid    your_genotype DISEASE.TRAIT INITIAL.SAMPLE.SIZE RISK.ALLELE.FREQUENCY
   <chr>   <fct>         <chr>         <chr>                               <dbl>
 1 rs1224… TT            Airway respo… Up to 4,108 Europe…               0.0002 
 2 rs1690… TT            Airway respo… Up to 4,108 Europe…               0.0004 
 3 rs1711… AG            Diisocyanate… 74 European ancest…               0.003  
 4 rs1447… AA            LDL choleste… 215,551 European a…               0.0035 
 5 rs1143… TT            Dementia      2,263 African ance…               0.00379
 6 rs7661… TT            Dementia      2,263 African ance…               0.00519
 7 rs1433… AG            Genetically … 265,000 European a…               0.00598
 8 rs1270… AG            Genetically … 265,000 European a…               0.00667
 9 rs1888… CC            Ticagrelor l… 1,794 European anc…               0.007  
10 rs4710… CT            IgG glycosyl… 2,247 European anc…               0.00804
# ℹ 50,781 more rows
…
